team.Rmd
…
## The following objects are masked from 'package:stats':
## 
##     filter, lag

## The following objects are masked from 'package:base':
## 
##     intersect, setdiff, setequal, union

 datline1 <- datline %>% group_by(Response_year) %>% summarise(marital_status = n())
datline1

## # A tibble: 32 x 2
##    Response_year marital_status
##            <dbl>          <int>
##  1          1972           1157
##  2          1973           1074
##  3          1974           1064
##  4          1975            998
##  5          1976            974
##  6          1977            974
##  7          1978            954
##  8          1980            886
##  9          1982            992
## 10          1983            958
## # ... with 22 more rows
…
